apps/experiment-transmission-delay/measurements/25Hz.csv

Record Length,Analog:70000,
Sample Interval,Analog:2.000000E-04,
Vertical Units,CH1:V, CH2:V,,
Vertical Scale,CH1:+1.000000E+00, CH2:+1.000000E+00,,
Vertical Offset,CH1:+0.000000E+00, CH2:+0.000000E+00,,
Horizontal Units,us,
Horizontal Scale,+1.000000E+06,
Model Number,SDS1104X-E,
Serial Number,SDSMMFCQ6R6882,
Software Version,8.3.6.1.37R8,
Source,CH1,CH2
Second,Value,Value
-7.035000E+00,+1.840000E+00,+4.000000E-02
-7.034800E+00,+1.800000E+00,+4.000000E-02
-7.034600E+00,+1.840000E+00,+4.000000E-02
-7.034400E+00,+1.800000E+00,+4.000000E-02
-7.034200E+00,+1.840000E+00,+4.000000E-02
-7.034000E+00,+1.840000E+00,+4.000000E-02
-7.033800E+00,+1.840000E+00,+4.000000E-02
-7.033600E+00,+1.840000E+00,+4.000000E-02
-7.033400E+00,+1.840000E+00,+4.000000E-02
-7.033200E+00,+1.800000E+00,+4.000000E-02
-7.033000E+00,+1.840000E+00,+4.000000E-02
-7.032800E+00,+1.800000E+00,+4.000000E-02
-7.032600E+00,+1.800000E+00,+4.000000E-02
-7.032400E+00,+1.840000E+00,+4.000000E-02
-7.032200E+00,+1.840000E+00,+4.000000E-02
-7.032000E+00,+1.840000E+00,+4.000000E-02
-7.031800E+00,+1.840000E+00,+4.000000E-02
-7.031600E+00,+1.840000E+00,+8.000001E-02
-7.031400E+00,+1.800000E+00,+4.000000E-02
-7.031200E+00,+1.840000E+00,+4.000000E-02
-7.031000E+00,+1.840000E+00,+4.000000E-02
-7.030800E+00,+1.840000E+00,+4.000000E-02
-7.030600E+00,+1.840000E+00,+4.000000E-02
-7.030400E+00,+1.840000E+00,+4.000000E-02
-7.030200E+00,+1.800000E+00,+4.000000E-02
-7.030000E+00,+1.840000E+00,+4.000000E-02
-7.029800E+00,+1.840000E+00,+4.000000E-02
-7.029600E+00,+1.840000E+00,+4.000000E-02
-7.029400E+00,+1.800000E+00,+4.000000E-02
-7.029200E+00,+1.800000E+00,+4.000000E-02
-7.029000E+00,+1.840000E+00,+4.000000E-02
-7.028800E+00,+1.800000E+00,+4.000000E-02
-7.028600E+00,+1.840000E+00,+4.000000E-02
-7.028400E+00,+1.840000E+00,+4.000000E-02
-7.028200E+00,+1.840000E+00,+4.000000E-02
-7.028000E+00,+1.840000E+00,+4.000000E-02
-7.027800E+00,+1.800000E+00,+4.000000E-02
-7.027600E+00,+1.800000E+00,+4.000000E-02
-7.027400E+00,+1.800000E+00,+4.000000E-02
-7.027200E+00,+1.840000E+00,+4.000000E-02
-7.027000E+00,+1.840000E+00,+4.000000E-02
-7.026800E+00,+1.840000E+00,+4.000000E-02
-7.026600E+00,+1.840000E+00,+4.000000E-02
-7.026400E+00,+1.840000E+00,+4.000000E-02
-7.026200E+00,+1.840000E+00,+4.000000E-02
-7.026000E+00,+1.800000E+00,+4.000000E-02
-7.025800E+00,+1.840000E+00,+4.000000E-02
-7.025600E+00,+1.840000E+00,+4.000000E-02
-7.025400E+00,+1.840000E+00,+4.000000E-02
-7.025200E+00,+1.840000E+00,+4.000000E-02
-7.025000E+00,+1.840000E+00,+4.000000E-02
-7.024800E+00,+1.800000E+00,+2.920000E+00
-7.024600E+00,+1.840000E+00,+2.880000E+00
-7.024400E+00,+1.800000E+00,+2.840000E+00
-7.024200E+00,+1.800000E+00,+2.840000E+00
-7.024000E+00,+1.800000E+00,+2.840000E+00
-7.023800E+00,+1.840000E+00,+2.840000E+00
-7.023600E+00,+1.840000E+00,+2.840000E+00
-7.023400E+00,+1.800000E+00,+2.840000E+00
-7.023200E+00,+1.840000E+00,+2.840000E+00
-7.023000E+00,+1.840000E+00,+2.840000E+00
-7.022800E+00,+1.800000E+00,+2.840000E+00
-7.022600E+00,+1.840000E+00,+2.840000E+00
-7.022400E+00,+1.840000E+00,+2.840000E+00
-7.022200E+00,+1.840000E+00,+2.840000E+00
-7.022000E+00,+1.840000E+00,+2.840000E+00
-7.021800E+00,+1.840000E+00,+2.800000E+00
-7.021600E+00,+1.840000E+00,+2.840000E+00
-7.021400E+00,+1.840000E+00,+2.840000E+00
-7.021200E+00,+1.800000E+00,+2.800000E+00
-7.021000E+00,+1.840000E+00,+2.840000E+00
-7.020800E+00,+1.840000E+00,+2.840000E+00
-7.020600E+00,+1.800000E+00,+2.840000E+00
-7.020400E+00,+1.800000E+00,+2.800000E+00
-7.020200E+00,+1.880000E+00,+2.840000E+00
-7.020000E+00,+1.840000E+00,+2.880000E+00
-7.019800E+00,+1.800000E+00,+2.880000E+00
-7.019600E+00,+1.840000E+00,+2.840000E+00
-7.019400E+00,+1.840000E+00,+2.840000E+00
-7.019200E+00,+1.800000E+00,+2.840000E+00
-7.019000E+00,+1.840000E+00,+2.880000E+00
-7.018800E+00,+1.840000E+00,+2.840000E+00
-7.018600E+00,+1.800000E+00,+2.840000E+00
-7.018400E+00,+1.800000E+00,+2.880000E+00
-7.018200E+00,+1.800000E+00,+2.840000E+00
-7.018000E+00,+1.840000E+00,+2.840000E+00
-7.017800E+00,+1.800000E+00,+2.840000E+00
-7.017600E+00,+1.880000E+00,+2.880000E+00
-7.017400E+00,+1.840000E+00,+2.840000E+00
-7.017200E+00,+1.840000E+00,+2.840000E+00
-7.017000E+00,+1.800000E+00,+2.840000E+00
-7.016800E+00,+1.840000E+00,+2.840000E+00
-7.016600E+00,+1.840000E+00,+2.840000E+00
-7.016400E+00,+1.840000E+00,+2.840000E+00
-7.016200E+00,+1.840000E+00,+2.840000E+00
-7.016000E+00,+1.840000E+00,+2.880000E+00
-7.015800E+00,+1.840000E+00,+2.880000E+00
-7.015600E+00,+1.840000E+00,+2.880000E+00
-7.015400E+00,+1.840000E+00,+2.880000E+00
-7.015200E+00,+1.840000E+00,+2.840000E+00
-7.015000E+00,+1.840000E+00,+2.880000E+00
-7.014800E+00,+1.800000E+00,+2.840000E+00
-7.014600E+00,+1.840000E+00,+2.880000E+00
-7.014400E+00,+1.800000E+00,+2.880000E+00
-7.014200E+00,+1.800000E+00,+2.880000E+00
-7.014000E+00,+1.800000E+00,+2.840000E+00
-7.013800E+00,+1.800000E+00,+2.840000E+00
-7.013600E+00,+1.800000E+00,+2.840000E+00
-7.013400E+00,+1.840000E+00,+2.880000E+00
-7.013200E+00,+1.840000E+00,+2.880000E+00
-7.013000E+00,+1.840000E+00,+2.880000E+00
-7.012800E+00,+1.800000E+00,+2.880000E+00
-7.012600E+00,+1.800000E+00,+2.880000E+00
-7.012400E+00,+1.840000E+00,+2.840000E+00
-7.012200E+00,+1.840000E+00,+2.880000E+00
-7.012000E+00,+1.840000E+00,+2.880000E+00
-7.011800E+00,+1.840000E+00,+2.840000E+00
-7.011600E+00,+1.800000E+00,+2.880000E+00
-7.011400E+00,+1.840000E+00,+2.880000E+00
-7.011200E+00,+1.840000E+00,+2.840000E+00
-7.011000E+00,+1.840000E+00,+2.840000E+00
-7.010800E+00,+1.800000E+00,+2.840000E+00
-7.010600E+00,+1.800000E+00,+2.840000E+00
-7.010400E+00,+1.840000E+00,+2.880000E+00
-7.010200E+00,+1.840000E+00,+2.880000E+00
-7.010000E+00,+1.840000E+00,+2.880000E+00
-7.009800E+00,+1.840000E+00,+2.840000E+00
-7.009600E+00,+1.800000E+00,+2.840000E+00
-7.009400E+00,+1.800000E+00,+2.840000E+00
-7.009200E+00,+1.800000E+00,+2.840000E+00
-7.009000E+00,+1.800000E+00,+2.880000E+00
-7.008800E+00,+1.840000E+00,+2.880000E+00
-7.008600E+00,+1.840000E+00,+2.880000E+00
-7.008400E+00,+1.840000E+00,+2.840000E+00
-7.008200E+00,+1.800000E+00,+2.880000E+00
-7.008000E+00,+1.800000E+00,+2.840000E+00
-7.007800E+00,+1.840000E+00,+2.880000E+00
-7.007600E+00,+1.800000E+00,+2.840000E+00
-7.007400E+00,+1.840000E+00,+2.880000E+00
-7.007200E+00,+1.840000E+00,+2.880000E+00
-7.007000E+00,+1.840000E+00,+2.880000E+00
-7.006800E+00,+1.840000E+00,+2.880000E+00
-7.006600E+00,+1.840000E+00,+2.880000E+00
-7.006400E+00,+1.800000E+00,+2.880000E+00
-7.006200E+00,+1.800000E+00,+2.840000E+00
-7.006000E+00,+1.840000E+00,+2.840000E+00
-7.005800E+00,+1.800000E+00,+2.880000E+00
-7.005600E+00,+1.840000E+00,+2.880000E+00
-7.005400E+00,+1.800000E+00,+2.840000E+00
-7.005200E+00,+1.840000E+00,+2.880000E+00
-7.005000E+00,+1.840000E+00,+2.880000E+00
-7.004800E+00,+1.840000E+00,+2.880000E+00
-7.004600E+00,+1.840000E+00,+2.880000E+00
-7.004400E+00,+1.800000E+00,+2.880000E+00
-7.004200E+00,+1.840000E+00,+2.840000E+00
-7.004000E+00,+1.840000E+00,+2.880000E+00
-7.003800E+00,+1.880000E+00,+2.880000E+00
-7.003600E+00,+1.840000E+00,+2.840000E+00
-7.003400E+00,+1.840000E+00,+2.880000E+00
-7.003200E+00,+1.800000E+00,+2.840000E+00
-7.003000E+00,+1.840000E+00,+2.880000E+00
-7.002800E+00,+1.800000E+00,+2.880000E+00
-7.002600E+00,+1.840000E+00,+2.880000E+00
-7.002400E+00,+1.800000E+00,+2.880000E+00
-7.002200E+00,+1.840000E+00,+2.880000E+00
-7.002000E+00,+1.800000E+00,+2.840000E+00
-7.001800E+00,+1.840000E+00,+2.840000E+00
-7.001600E+00,+1.800000E+00,+2.840000E+00
-7.001400E+00,+1.800000E+00,+2.880000E+00
-7.001200E+00,+1.840000E+00,+2.880000E+00
-7.001000E+00,+1.800000E+00,+2.840000E+00
-7.000800E+00,+1.840000E+00,+2.840000E+00
-7.000600E+00,+1.800000E+00,+2.880000E+00
-7.000400E+00,+1.800000E+00,+2.840000E+00
-7.000200E+00,+1.840000E+00,+2.880000E+00
-7.000000E+00,+1.840000E+00,+2.840000E+00
-6.999800E+00,+1.880000E+00,+2.840000E+00
-6.999600E+00,-4.000000E-02,+2.840000E+00
-6.999400E+00,+0.000000E+00,+2.840000E+00
-6.999200E+00,+0.000000E+00,+2.880000E+00
-6.999000E+00,+0.000000E+00,+2.880000E+00
-6.998800E+00,+0.000000E+00,+2.880000E+00
-6.998600E+00,+0.000000E+00,+2.840000E+00
-6.998400E+00,+0.000000E+00,+2.880000E+00
-6.998200E+00,+0.000000E+00,+2.880000E+00
-6.998000E+00,+0.000000E+00,+2.880000E+00
-6.997800E+00,+0.000000E+00,+2.840000E+00
-6.997600E+00,+0.000000E+00,+2.880000E+00
-6.997400E+00,+0.000000E+00,+2.880000E+00
-6.997200E+00,+0.000000E+00,+2.840000E+00
-6.997000E+00,+0.000000E+00,+2.880000E+00
-6.996800E+00,+0.000000E+00,+2.840000E+00
-6.996600E+00,+0.000000E+00,+2.880000E+00
-6.996400E+00,+0.000000E+00,+2.840000E+00
-6.996200E+00,+4.000000E-02,+2.840000E+00
-6.996000E+00,+0.000000E+00,+2.840000E+00
-6.995800E+00,+4.000000E-02,+2.840000E+00
-6.995600E+00,+4.000000E-02,+2.880000E+00
-6.995400E+00,+0.000000E+00,+2.880000E+00
-6.995200E+00,+4.000000E-02,+2.840000E+00
-6.995000E+00,+4.000000E-02,+2.840000E+00
-6.994800E+00,+0.000000E+00,+2.880000E+00
-6.994600E+00,+0.000000E+00,+2.840000E+00
-6.994400E+00,+4.000000E-02,+2.880000E+00
-6.994200E+00,+0.000000E+00,+2.840000E+00
-6.994000E+00,+0.000000E+00,+2.880000E+00
-6.993800E+00,+0.000000E+00,+2.880000E+00
-6.993600E+00,+4.000000E-02,+2.800000E+00
-6.993400E+00,+0.000000E+00,+2.880000E+00
-6.993200E+00,+0.000000E+00,+2.840000E+00
-6.993000E+00,+0.000000E+00,+2.880000E+00
-6.992800E+00,+0.000000E+00,+2.840000E+00
-6.992600E+00,+0.000000E+00,+2.840000E+00
-6.992400E+00,+0.000000E+00,+2.840000E+00
-6.992200E+00,+0.000000E+00,+2.840000E+00
-6.992000E+00,+0.000000E+00,+2.880000E+00
-6.991800E+00,+0.000000E+00,+2.880000E+00
-6.991600E+00,+0.000000E+00,+2.880000E+00
-6.991400E+00,+0.000000E+00,+2.840000E+00
-6.991200E+00,+0.000000E+00,+2.840000E+00
-6.991000E+00,+0.000000E+00,+2.880000E+00
-6.990800E+00,+0.000000E+00,+2.840000E+00
-6.990600E+00,+0.000000E+00,+2.880000E+00
-6.990400E+00,+0.000000E+00,+2.840000E+00
-6.990200E+00,+0.000000E+00,+2.840000E+00
-6.990000E+00,+0.000000E+00,+2.880000E+00
-6.989800E+00,+0.000000E+00,+2.840000E+00
-6.989600E+00,+0.000000E+00,+2.840000E+00
-6.989400E+00,+0.000000E+00,+2.880000E+00
-6.989200E+00,+0.000000E+00,+2.880000E+00
-6.989000E+00,+0.000000E+00,+2.840000E+00
-6.988800E+00,+0.000000E+00,+2.840000E+00
-6.988600E+00,+0.000000E+00,+2.840000E+00
-6.988400E+00,+0.000000E+00,+2.840000E+00
-6.988200E+00,+0.000000E+00,+2.840000E+00
-6.988000E+00,+0.000000E+00,+2.840000E+00
-6.987800E+00,+0.000000E+00,+2.840000E+00
-6.987600E+00,+0.000000E+00,+2.800000E+00
-6.987400E+00,+0.000000E+00,+2.840000E+00
-6.987200E+00,+0.000000E+00,+2.800000E+00
-6.987000E+00,+0.000000E+00,+2.840000E+00
-6.986800E+00,+0.000000E+00,+2.880000E+00
-6.986600E+00,+0.000000E+00,+2.840000E+00
-6.986400E+00,+0.000000E+00,+2.840000E+00
-6.986200E+00,+0.000000E+00,+2.840000E+00
-6.986000E+00,+0.000000E+00,+2.800000E+00
-6.985800E+00,+0.000000E+00,+2.800000E+00
-6.985600E+00,+0.000000E+00,-1.600000E-01
-6.985400E+00,+0.000000E+00,+4.000000E-02
-6.985200E+00,+0.000000E+00,+4.000000E-02
-6.985000E+00,+0.000000E+00,+4.000000E-02
-6.984800E+00,+0.000000E+00,+4.000000E-02
-6.984600E+00,+0.000000E+00,+4.000000E-02
-6.984400E+00,+0.000000E+00,+8.000001E-02
-6.984200E+00,+0.000000E+00,+4.000000E-02
-6.984000E+00,+0.000000E+00,+4.000000E-02
-6.983800E+00,+0.000000E+00,+4.000000E-02
-6.983600E+00,+0.000000E+00,+4.000000E-02
-6.983400E+00,+0.000000E+00,+4.000000E-02
-6.983200E+00,+0.000000E+00,+4.000000E-02
-6.983000E+00,+0.000000E+00,+4.000000E-02
-6.982800E+00,+0.000000E+00,+4.000000E-02
-6.982600E+00,+0.000000E+00,+4.000000E-02
-6.982400E+00,+0.000000E+00,+4.000000E-02
-6.982200E+00,+0.000000E+00,+4.000000E-02
-6.982000E+00,+0.000000E+00,+4.000000E-02
-6.981800E+00,+0.000000E+00,+4.000000E-02
-6.981600E+00,+0.000000E+00,+4.000000E-02
-6.981400E+00,+0.000000E+00,+4.000000E-02
-6.981200E+00,+0.000000E+00,+4.000000E-02
-6.981000E+00,+0.000000E+00,+4.000000E-02
-6.980800E+00,+0.000000E+00,+4.000000E-02
-6.980600E+00,+0.000000E+00,+4.000000E-02
-6.980400E+00,+0.000000E+00,+4.000000E-02
-6.980200E+00,+0.000000E+00,+4.000000E-02
-6.980000E+00,+0.000000E+00,+8.000001E-02
-6.979800E+00,+0.000000E+00,+4.000000E-02
-6.979600E+00,+0.000000E+00,+4.000000E-02
-6.979400E+00,+0.000000E+00,+4.000000E-02
-6.979200E+00,+0.000000E+00,+4.000000E-02
-6.979000E+00,+0.000000E+00,+4.000000E-02
-6.978800E+00,+0.000000E+00,+4.000000E-02
-6.978600E+00,+0.000000E+00,+4.000000E-02
-6.978400E+00,+0.000000E+00,+4.000000E-02
-6.978200E+00,+0.000000E+00,+4.000000E-02
-6.978000E+00,+0.000000E+00,+4.000000E-02
-6.977800E+00,+0.000000E+00,+4.000000E-02
-6.977600E+00,+0.000000E+00,+4.000000E-02
-6.977400E+00,+0.000000E+00,+4.000000E-02
-6.977200E+00,+0.000000E+00,+4.000000E-02
-6.977000E+00,+0.000000E+00,+4.000000E-02
-6.976800E+00,+0.000000E+00,+4.000000E-02
-6.976600E+00,+0.000000E+00,+4.000000E-02
-6.976400E+00,+0.000000E+00,+4.000000E-02
-6.976200E+00,+0.000000E+00,+4.000000E-02
-6.976000E+00,+0.000000E+00,+4.000000E-02
-6.975800E+00,+0.000000E+00,+4.000000E-02
-6.975600E+00,+0.000000E+00,+4.000000E-02
-6.975400E+00,+0.000000E+00,+4.000000E-02
-6.975200E+00,+0.000000E+00,+4.000000E-02
-6.975000E+00,+0.000000E+00,+4.000000E-02
-6.974800E+00,+0.000000E+00,+4.000000E-02
-6.974600E+00,+0.000000E+00,+4.000000E-02
-6.974400E+00,+0.000000E+00,+4.000000E-02
-6.974200E+00,+0.000000E+00,+4.000000E-02
-6.974000E+00,+0.000000E+00,+4.000000E-02
-6.973800E+00,+0.000000E+00,+4.000000E-02
-6.973600E+00,+0.000000E+00,+4.000000E-02
-6.973400E+00,+0.000000E+00,+4.000000E-02
-6.973200E+00,+0.000000E+00,+4.000000E-02
-6.973000E+00,+0.000000E+00,+4.000000E-02
-6.972800E+00,+0.000000E+00,+4.000000E-02
-6.972600E+00,+0.000000E+00,+4.000000E-02
-6.972400E+00,+0.000000E+00,+4.000000E-02
-6.972200E+00,+0.000000E+00,+4.000000E-02
-6.972000E+00,+0.000000E+00,+4.000000E-02
-6.971800E+00,+0.000000E+00,+4.000000E-02
-6.971600E+00,+0.000000E+00,+4.000000E-02
-6.971400E+00,+0.000000E+00,+4.000000E-02
-6.971200E+00,+0.000000E+00,+4.000000E-02
-6.971000E+00,+0.000000E+00,+4.000000E-02
-6.970800E+00,+0.000000E+00,+4.000000E-02
-6.970600E+00,+0.000000E+00,+4.000000E-02
-6.970400E+00,+0.000000E+00,+4.000000E-02
-6.970200E+00,+0.000000E+00,+4.000000E-02
-6.970000E+00,+0.000000E+00,+4.000000E-02
-6.969800E+00,+0.000000E+00,+4.000000E-02
-6.969600E+00,+0.000000E+00,+8.000001E-02
-6.969400E+00,+0.000000E+00,+4.000000E-02
-6.969200E+00,+0.000000E+00,+4.000000E-02
-6.969000E+00,+0.000000E+00,+4.000000E-02
-6.968800E+00,+0.000000E+00,+4.000000E-02
-6.968600E+00,+0.000000E+00,+4.000000E-02
-6.968400E+00,+0.000000E+00,+4.000000E-02
-6.968200E+00,+0.000000E+00,+4.000000E-02
-6.968000E+00,+0.000000E+00,+4.000000E-02
-6.967800E+00,+0.000000E+00,+4.000000E-02
-6.967600E+00,+0.000000E+00,+4.000000E-02
-6.967400E+00,+0.000000E+00,+4.000000E-02
-6.967200E+00,+0.000000E+00,+4.000000E-02
-6.967000E+00,+0.000000E+00,+4.000000E-02
-6.966800E+00,+0.000000E+00,+4.000000E-02
-6.966600E+00,+0.000000E+00,+4.000000E-02
-6.966400E+00,+0.000000E+00,+4.000000E-02
-6.966200E+00,+0.000000E+00,+4.000000E-02
-6.966000E+00,+0.000000E+00,+4.000000E-02
-6.965800E+00,+0.000000E+00,+4.000000E-02
-6.965600E+00,+0.000000E+00,+4.000000E-02
-6.965400E+00,+0.000000E+00,+4.000000E-02
-6.965200E+00,+0.000000E+00,+4.000000E-02
-6.965000E+00,+0.000000E+00,+4.000000E-02
-6.964800E+00,+0.000000E+00,+4.000000E-02
-6.964600E+00,+0.000000E+00,+4.000000E-02
-6.964400E+00,+0.000000E+00,+4.000000E-02
-6.964200E+00,+0.000000E+00,+4.000000E-02
-6.964000E+00,+0.000000E+00,+4.000000E-02
-6.963800E+00,+0.000000E+00,+4.000000E-02
-6.963600E+00,+0.000000E+00,+4.000000E-02
-6.963400E+00,+0.000000E+00,+8.000001E-02
-6.963200E+00,+0.000000E+00,+4.000000E-02
-6.963000E+00,+0.000000E+00,+4.000000E-02
-6.962800E+00,+0.000000E+00,+4.000000E-02
-6.962600E+00,+0.000000E+00,+4.000000E-02
-6.962400E+00,+0.000000E+00,+4.000000E-02
-6.962200E+00,+0.000000E+00,+4.000000E-02
-6.962000E+00,+0.000000E+00,+4.000000E-02
-6.961800E+00,+0.000000E+00,+4.000000E-02
-6.961600E+00,+0.000000E+00,+4.000000E-02
-6.961400E+00,+0.000000E+00,+4.000000E-02
-6.961200E+00,+0.000000E+00,+4.000000E-02
-6.961000E+00,+0.000000E+00,+4.000000E-02
-6.960800E+00,+0.000000E+00,+4.000000E-02
-6.960600E+00,+0.000000E+00,+4.000000E-02
-6.960400E+00,+0.000000E+00,+4.000000E-02
-6.960200E+00,+0.000000E+00,+4.000000E-02
-6.960000E+00,+0.000000E+00,+4.000000E-02
-6.959800E+00,+0.000000E+00,+4.000000E-02
-6.959600E+00,+0.000000E+00,+4.000000E-02
-6.959400E+00,+0.000000E+00,+4.000000E-02
-6.959200E+00,+0.000000E+00,+4.000000E-02
-6.959000E+00,+0.000000E+00,+4.000000E-02
-6.958800E+00,+1.960000E+00,+8.000001E-02
-6.958600E+00,+1.800000E+00,+4.000000E-02
-6.958400E+00,+1.840000E+00,+4.000000E-02
-6.958200E+00,+1.800000E+00,+4.000000E-02
-6.958000E+00,+1.840000E+00,+4.000000E-02
-6.957800E+00,+1.800000E+00,+4.000000E-02
-6.957600E+00,+1.880000E+00,+4.000000E-02
-6.957400E+00,+1.840000E+00,+4.000000E-02
-6.957200E+00,+1.840000E+00,+4.000000E-02
-6.957000E+00,+1.800000E+00,+4.000000E-02
-6.956800E+00,+1.800000E+00,+4.000000E-02
-6.956600E+00,+1.840000E+00,+4.000000E-02
-6.956400E+00,+1.840000E+00,+4.000000E-02
-6.956200E+00,+1.800000E+00,+4.000000E-02
-6.956000E+00,+1.840000E+00,+4.000000E-02
-6.955800E+00,+1.800000E+00,+4.000000E-02
-6.955600E+00,+1.840000E+00,+4.000000E-02
-6.955400E+00,+1.840000E+00,+4.000000E-02
-6.955200E+00,+1.800000E+00,+4.000000E-02
-6.955000E+00,+1.800000E+00,+4.000000E-02
-6.954800E+00,+1.840000E+00,+8.000001E-02
-6.954600E+00,+1.840000E+00,+4.000000E-02
-6.954400E+00,+1.840000E+00,+4.000000E-02
-6.954200E+00,+1.840000E+00,+4.000000E-02
-6.954000E+00,+1.880000E+00,+4.000000E-02
-6.953800E+00,+1.840000E+00,+4.000000E-02
-6.953600E+00,+1.800000E+00,+4.000000E-02
-6.953400E+00,+1.840000E+00,+4.000000E-02
-6.953200E+00,+1.840000E+00,+4.000000E-02
-6.953000E+00,+1.800000E+00,+4.000000E-02
-6.952800E+00,+1.840000E+00,+4.000000E-02
-6.952600E+00,+1.840000E+00,+4.000000E-02
-6.952400E+00,+1.800000E+00,+4.000000E-02
-6.952200E+00,+1.880000E+00,+4.000000E-02
-6.952000E+00,+1.800000E+00,+4.000000E-02
-6.951800E+00,+1.840000E+00,+4.000000E-02
-6.951600E+00,+1.840000E+00,+4.000000E-02
-6.951400E+00,+1.800000E+00,+4.000000E-02
-6.951200E+00,+1.840000E+00,+8.000001E-02
-6.951000E+00,+1.800000E+00,+4.000000E-02
-6.950800E+00,+1.840000E+00,+4.000000E-02
-6.950600E+00,+1.840000E+00,+4.000000E-02
-6.950400E+00,+1.840000E+00,+4.000000E-02
-6.950200E+00,+1.840000E+00,+4.000000E-02
-6.950000E+00,+1.840000E+00,+4.000000E-02
-6.949800E+00,+1.840000E+00,+4.000000E-02
-6.949600E+00,+1.880000E+00,+4.000000E-02
-6.949400E+00,+1.840000E+00,+4.000000E-02
-6.949200E+00,+1.840000E+00,+4.000000E-02
-6.949000E+00,+1.800000E+00,+4.000000E-02
-6.948800E+00,+1.800000E+00,+4.000000E-02
-6.948600E+00,+1.800000E+00,+4.000000E-02
-6.948400E+00,+1.840000E+00,+4.000000E-02
-6.948200E+00,+1.840000E+00,+4.000000E-02
-6.948000E+00,+1.840000E+00,+4.000000E-02
-6.947800E+00,+1.800000E+00,+4.000000E-02
-6.947600E+00,+1.840000E+00,+4.000000E-02
-6.947400E+00,+1.840000E+00,+4.000000E-02
-6.947200E+00,+1.840000E+00,+4.000000E-02
-6.947000E+00,+1.840000E+00,+4.000000E-02
-6.946800E+00,+1.840000E+00,+4.000000E-02
-6.946600E+00,+1.840000E+00,+4.000000E-02
-6.946400E+00,+1.840000E+00,+4.000000E-02
-6.946200E+00,+1.840000E+00,+4.000000E-02
-6.946000E+00,+1.840000E+00,+4.000000E-02
-6.945800E+00,+1.840000E+00,+4.000000E-02
-6.945600E+00,+1.840000E+00,+4.000000E-02
-6.945400E+00,+1.840000E+00,+8.000001E-02
-6.945200E+00,+1.840000E+00,+4.000000E-02
-6.945000E+00,+1.840000E+00,+4.000000E-02
-6.944800E+00,+1.840000E+00,+4.000000E-02
-6.944600E+00,+1.840000E+00,+4.000000E-02
-6.944400E+00,+1.840000E+00,+3.120000E+00
-6.944200E+00,+1.840000E+00,+2.840000E+00
-6.944000E+00,+1.840000E+00,+2.840000E+00
-6.943800E+00,+1.840000E+00,+2.800000E+00
-6.943600E+00,+1.800000E+00,+2.840000E+00
-6.943400E+00,+1.800000E+00,+2.800000E+00
-6.943200E+00,+1.840000E+00,+2.840000E+00
-6.943000E+00,+1.840000E+00,+2.800000E+00
-6.942800E+00,+1.840000E+00,+2.840000E+00
-6.942600E+00,+1.800000E+00,+2.840000E+00
-6.942400E+00,+1.840000E+00,+2.800000E+00
-6.942200E+00,+1.840000E+00,+2.840000E+00
-6.942000E+00,+1.840000E+00,+2.840000E+00
-6.941800E+00,+1.840000E+00,+2.800000E+00
